/home/stanislav/Documenti/CherryChain/tennis-kata/src/main/java/org/example/App.java
/home/stanislav/Documenti/CherryChain/tennis-kata/src/main/java/org/example/Player.java
/home/stanislav/Documenti/CherryChain/tennis-kata/src/main/java/org/example/Match.java
